EESchema Schematic File Version 4
EELAYER 30 0
EELAYER END
$Descr A4 11693 8268
encoding utf-8
Sheet 4 4
Title ""
Date ""
Rev ""
Comp ""
Comment1 ""
Comment2 ""
Comment3 ""
Comment4 ""
$EndDescr
$Comp
L Device:LED D8
U 1 1 60BA3FBB
P 3700 2250
F 0 "D8" H 3700 2150 50  0000 C CNN
F 1 "Mains_On" H 3200 2250 50  0000 C CNN
F 2 "LED_THT:LED_D3.0mm" H 3700 2250 50  0001 C CNN
F 3 "~" H 3700 2250 50  0001 C CNN
	1    3700 2250
	-1   0    0    1   
$EndComp
$Comp
L Device:LED D9
U 1 1 60BA4CEE
P 3700 2650
F 0 "D9" H 3700 2550 50  0000 C CNN
F 1 "Batteries_Available" H 3000 2650 50  0000 C CNN
F 2 "LED_THT:LED_D3.0mm" H 3700 2650 50  0001 C CNN
F 3 "~" H 3700 2650 50  0001 C CNN
	1    3700 2650
	-1   0    0    1   
$EndComp
$Comp
L Device:LED D10
U 1 1 60BA57DF
P 3700 3050
F 0 "D10" H 3700 2950 50  0000 C CNN
F 1 "5V_Available" H 3100 3050 50  0000 C CNN
F 2 "LED_THT:LED_D3.0mm" H 3700 3050 50  0001 C CNN
F 3 "~" H 3700 3050 50  0001 C CNN
	1    3700 3050
	-1   0    0    1   
$EndComp
$Comp
L Device:R R?
U 1 1 60BA6C4C
P 3200 2250
AR Path="/60AFFDCF/60BA6C4C" Ref="R?"  Part="1" 
AR Path="/60AFFE83/60BA6C4C" Ref="R?"  Part="1" 
AR Path="/60AFFF62/60BA6C4C" Ref="R14"  Part="1" 
F 0 "R14" V 3300 2200 50  0000 L CNN
F 1 "2k2" V 3100 2200 50  0000 L CNN
F 2 "Resistor_SMD:R_0603_1608Metric" V 3130 2250 50  0001 C CNN
F 3 "~" H 3200 2250 50  0001 C CNN
	1    3200 2250
	0    -1   -1   0   
$EndComp
$Comp
L Device:R R?
U 1 1 60BA6CF2
P 3200 2650
AR Path="/60AFFDCF/60BA6CF2" Ref="R?"  Part="1" 
AR Path="/60AFFE83/60BA6CF2" Ref="R?"  Part="1" 
AR Path="/60AFFF62/60BA6CF2" Ref="R15"  Part="1" 
F 0 "R15" V 3100 2550 50  0000 L CNN
F 1 "1k" V 3300 2600 50  0000 L CNN
F 2 "Resistor_SMD:R_0603_1608Metric" V 3130 2650 50  0001 C CNN
F 3 "~" H 3200 2650 50  0001 C CNN
	1    3200 2650
	0    1    1    0   
$EndComp
$Comp
L Device:R R?
U 1 1 60BA6F3C
P 3200 3050
AR Path="/60AFFDCF/60BA6F3C" Ref="R?"  Part="1" 
AR Path="/60AFFE83/60BA6F3C" Ref="R?"  Part="1" 
AR Path="/60AFFF62/60BA6F3C" Ref="R16"  Part="1" 
F 0 "R16" V 3300 3000 50  0000 L CNN
F 1 "1k" V 3100 3000 50  0000 L CNN
F 2 "Resistor_SMD:R_0603_1608Metric" V 3130 3050 50  0001 C CNN
F 3 "~" H 3200 3050 50  0001 C CNN
	1    3200 3050
	0    -1   -1   0   
$EndComp
$Comp
L power:GND #PWR03
U 1 1 60BC4966
P 4000 3400
F 0 "#PWR03" H 4000 3150 50  0001 C CNN
F 1 "GND" H 4005 3227 50  0000 C CNN
F 2 "" H 4000 3400 50  0001 C CNN
F 3 "" H 4000 3400 50  0001 C CNN
	1    4000 3400
	1    0    0    -1  
$EndComp
Wire Wire Line
	3850 2250 4000 2250
Wire Wire Line
	4000 2250 4000 2650
Wire Wire Line
	3850 3050 4000 3050
Connection ~ 4000 3050
Wire Wire Line
	4000 3050 4000 3400
Wire Wire Line
	3850 2650 4000 2650
Connection ~ 4000 2650
Wire Wire Line
	4000 2650 4000 3050
Wire Wire Line
	3350 2650 3550 2650
Wire Wire Line
	3350 2250 3550 2250
Wire Wire Line
	3350 3050 3550 3050
Wire Wire Line
	3050 2250 2800 2250
Wire Wire Line
	3050 2650 2800 2650
Wire Wire Line
	3050 3050 2800 3050
Text GLabel 2800 2250 0    50   Input ~ 0
Vin
Text GLabel 2800 2650 0    50   Input ~ 0
Vstore
Text GLabel 2800 3050 0    50   Input ~ 0
5V
Text Notes 3650 2400 0    50   ~ 0
Green
Text Notes 3650 2800 0    50   ~ 0
Green
Text Notes 3650 3200 0    50   ~ 0
Green
$EndSCHEMATC
